White-Britt-ADA-homework-4
…
Challenge 2

Use the dataset and function generated above to plot data on confirmed coronavirus infections, deaths, and recoveries for the Group of Seven (G7) countries, which are the largest IMF-advanced economies in the world (i.e., the US, United Kingdom, Canada, France, Germany, Italy, and Japan) plus China, Russia, and Iran. Facet your plots first by country and then by variable.

## $totals
## # A tibble: 60 x 13
##    country variable cases population   area density    rate gdp_capita income
##    <chr>   <chr>    <dbl>      <dbl>  <dbl>   <dbl>   <dbl>      <dbl> <chr> 
##  1 Canada  confirm~ 70091   37057765 9.09e6    4.08 1.89e+3     51392. High ~
##  2 Canada  daily_c~  2778   37057765 9.09e6    4.08 7.50e+1     51392. High ~
##  3 Canada  daily_d~   251   37057765 9.09e6    4.08 6.77e+0     51392. High ~
##  4 Canada  daily_r~  1385   37057765 9.09e6    4.08 3.74e+1     51392. High ~
##  5 Canada  deaths    4991   37057765 9.09e6    4.08 1.35e+2     51392. High ~
##  6 Canada  recover~ 32109   37057765 9.09e6    4.08 8.66e+2     51392. High ~
##  7 China   confirm~ 84010 1392730000 9.39e6  148.   6.03e+1      7753. Upper~
##  8 China   daily_c~ 15136 1392730000 9.39e6  148.   1.09e+1      7753. Upper~
##  9 China   daily_d~  1290 1392730000 9.39e6  148.   9.26e-1      7753. Upper~
## 10 China   daily_r~  3995 1392730000 9.39e6  148.   2.87e+0      7753. Upper~
## # ... with 50 more rows, and 4 more variables: life_expectancy <dbl>,
## #   max_sd <dbl>, max_mr <dbl>, on <date>
## 
## $cum_cases_plot
…
## $totals
## # A tibble: 60 x 13
##    country variable cases population   area density    rate gdp_capita income
##    <chr>   <chr>    <dbl>      <dbl>  <dbl>   <dbl>   <dbl>      <dbl> <chr> 
##  1 Canada  confirm~ 70091   37057765 9.09e6    4.08 1.89e+3     51392. High ~
##  2 Canada  daily_c~  2778   37057765 9.09e6    4.08 7.50e+1     51392. High ~
##  3 Canada  daily_d~   251   37057765 9.09e6    4.08 6.77e+0     51392. High ~
##  4 Canada  daily_r~  1385   37057765 9.09e6    4.08 3.74e+1     51392. High ~
##  5 Canada  deaths    4991   37057765 9.09e6    4.08 1.35e+2     51392. High ~
##  6 Canada  recover~ 32109   37057765 9.09e6    4.08 8.66e+2     51392. High ~
##  7 China   confirm~ 84010 1392730000 9.39e6  148.   6.03e+1      7753. Upper~
##  8 China   daily_c~ 15136 1392730000 9.39e6  148.   1.09e+1      7753. Upper~
##  9 China   daily_d~  1290 1392730000 9.39e6  148.   9.26e-1      7753. Upper~
## 10 China   daily_r~  3995 1392730000 9.39e6  148.   2.87e+0      7753. Upper~
## # ... with 50 more rows, and 4 more variables: life_expectancy <dbl>,
## #   max_sd <dbl>, max_mr <dbl>, on <date>
## 
## $cum_cases_plot
…
## Challenge 3
# Use the dataset and function generated above to return summary data for ALL countries in the dataset, and then filter this returned dataset to only those countries with populations of over 1 million, storing this dataset as a tibble d. How many countries does this tibble include?

```r
# summary data for ALL countries
Allsum <- cv_summary(cv_data, country_list = "All", plot = FALSE)
class(Allsum)

## [1] "list"

(All <- Allsum[[1]])

## # A tibble: 1,230 x 13
##    country variable cases population   area density    rate gdp_capita income
##    <chr>   <chr>    <dbl>      <dbl>  <dbl>   <dbl>   <dbl>      <dbl> <chr> 
##  1 Afghan~ confirm~  4402   37172386 652860    56.9 118.          564. Low i~
##  2 Afghan~ daily_c~   369   37172386 652860    56.9   9.93        564. Low i~
##  3 Afghan~ daily_d~    13   37172386 652860    56.9   0.350       564. Low i~
##  4 Afghan~ daily_r~    56   37172386 652860    56.9   1.51        564. Low i~
##  5 Afghan~ deaths     120   37172386 652860    56.9   3.23        564. Low i~
##  6 Afghan~ recover~   558   37172386 652860    56.9  15.0         564. Low i~
##  7 Albania confirm~   868    2866376  27400   105.  303.         5079. Upper~
##  8 Albania daily_c~    34    2866376  27400   105.   11.9        5079. Upper~
##  9 Albania daily_d~     4    2866376  27400   105.    1.40       5079. Upper~
## 10 Albania daily_r~    31    2866376  27400   105.   10.8        5079. Upper~
## # ... with 1,220 more rows, and 4 more variables: life_expectancy <dbl>,
## #   max_sd <dbl>, max_mr <dbl>, on <date>
…
